{"highscores":{"world":"Antica","category":"experience","vocation":"all","highscore_age":20,"highscore_list":[{"rank":1,"name":"Ranny Zolnierz Elder","vocation":"Master Sorcerer","world":"Antica","level":2153,"value":165914888571},{"rank":2,"name":"Zmek","vocation":"Elite Knight","world":"Antica","level":1999,"value":132790725936},{"rank":3,"name":"Orle Gniazdo","vocation":"Elite Knight","world":"Antica","level":1902,"value":114425649637},{"rank":4,"name":"Niquit","vocation":"Master Sorcerer","world":"Antica","level":1878,"value":110182860615},{"rank":5,"name":"Sedik","vocation":"Elder Druid","world":"Antica","level":1863,"value":107487841429},{"rank":6,"name":"Bossprime","vocation":"Elite Knight","world":"Antica","level":1850,"value":105317226353},{"rank":7,"name":"Pekky Khamzai","vocation":"Master Sorcerer","world":"Antica","level":1763,"value":91124103848},{"rank":8,"name":"Nyge","vocation":"Elite Knight","world":"Antica","level":1727,"value":85581287776},{"rank":9,"name":"Witcher Rawer","vocation":"Elder Druid","world":"Antica","level":1720,"value":84522218469},{"rank":10,"name":"Daso II","vocation":"Royal Paladin","world":"Antica","level":1705,"value":82369159598},{"rank":11,"name":"Knochi","vocation":"Elite Knight","world":"Antica","level":1701,"value":81777983831},{"rank":12,"name":"Yankoz Maestro","vocation":"Master Sorcerer","world":"Antica","level":1673,"value":77895834877},{"rank":13,"name":"Riivv","vocation":"Master Sorcerer","world":"Antica","level":1653,"value":75054922333},{"rank":14,"name":"Trusted Mage","vocation":"Master Sorcerer","world":"Antica","level":1652,"value":74965729870},{"rank":15,"name":"Furyprime","vocation":"Royal Paladin","world":"Antica","level":1644,"value":73891885427},{"rank":16,"name":"Onion koksu","vocation":"Royal Paladin","world":"Antica","level":1638,"value":72998703723},{"rank":17,"name":"John Ackerman","vocation":"Royal Paladin","world":"Antica","level":1627,"value":71589540902},{"rank":18,"name":"Piiotrus Pan","vocation":"Elder Druid","world":"Antica","level":1614,"value":69870981468},{"rank":19,"name":"Iceprime","vocation":"Elder Druid","world":"Antica","level":1594,"value":67366281508},{"rank":20,"name":"Filipec","vocation":"Elite Knight","world":"Antica","level":1543,"value":61013097623},{"rank":21,"name":"Lord Maseda","vocation":"Elite Knight","world":"Antica","level":1530,"value":59460946946},{"rank":22,"name":"Jose Arkadio Gipps","vocation":"Royal Paladin","world":"Antica","level":1516,"value":57917732278},{"rank":23,"name":"Bolk","vocation":"Master Sorcerer","world":"Antica","level":1502,"value":56304920536},{"rank":24,"name":"Danibolt","vocation":"Royal Paladin","world":"Antica","level":1470,"value":52822331628},{"rank":25,"name":"Anilde","vocation":"Royal Paladin","world":"Antica","level":1468,"value":52610870466},{"rank":26,"name":"Per Pan Nando","vocation":"Royal Paladin","world":"Antica","level":1461,"value":51790711699},{"rank":27,"name":"Zarothprime","vocation":"Master Sorcerer","world":"Antica","level":1450,"value":50643554732},{"rank":28,"name":"Sacio","vocation":"Elder Druid","world":"Antica","level":1448,"value":50443227535},{"rank":29,"name":"Eagle Rebel","vocation":"Royal Paladin","world":"Antica","level":1446,"value":50245141293},{"rank":30,"name":"Bahlor","vocation":"Elder Druid","world":"Antica","level":1444,"value":50058754285},{"rank":31,"name":"Cygi los panczos","vocation":"Master Sorcerer","world":"Antica","level":1437,"value":49327937566},{"rank":32,"name":"Sponsored by Potatos","vocation":"Royal Paladin","world":"Antica","level":1417,"value":47249396472},{"rank":33,"name":"The Ends","vocation":"Royal Paladin","world":"Antica","level":1406,"value":46139837006},{"rank":34,"name":"Pupuliukas","vocation":"Royal Paladin","world":"Antica","level":1395,"value":45097475220},{"rank":35,"name":"Zeyad","vocation":"Elder Druid","world":"Antica","level":1395,"value":45067100954},{"rank":36,"name":"Lemaozerah Amou Demais","vocation":"Elite Knight","world":"Antica","level":1386,"value":44277004819},{"rank":37,"name":"Herlik Copperfield","vocation":"Elder Druid","world":"Antica","level":1383,"value":43912740642},{"rank":38,"name":"Pawly","vocation":"Elder Druid","world":"Antica","level":1382,"value":43831320530},{"rank":39,"name":"Mythrion","vocation":"Royal Paladin","world":"Antica","level":1373,"value":42973756725},{"rank":40,"name":"Claho Ther","vocation":"Elder Druid","world":"Antica","level":1371,"value":42763498454},{"rank":41,"name":"Mano Tibeco","vocation":"Elite Knight","world":"Antica","level":1367,"value":42415356832},{"rank":42,"name":"Middel","vocation":"Master Sorcerer","world":"Antica","level":1360,"value":41769699237},{"rank":43,"name":"Xogoode","vocation":"Master Sorcerer","world":"Antica","level":1357,"value":41515554332},{"rank":44,"name":"Magicallse","vocation":"Master Sorcerer","world":"Antica","level":1354,"value":41252915561},{"rank":45,"name":"Piekielny Wojtus","vocation":"Elder Druid","world":"Antica","level":1354,"value":41250558011},{"rank":46,"name":"General Zooz","vocation":"Master Sorcerer","world":"Antica","level":1350,"value":40893292582},{"rank":47,"name":"The Joyboy","vocation":"Royal Paladin","world":"Antica","level":1350,"value":40844239333},{"rank":48,"name":"Jed Bartlet","vocation":"Royal Paladin","world":"Antica","level":1349,"value":40741701760},{"rank":49,"name":"Zygh","vocation":"Royal Paladin","world":"Antica","level":1344,"value":40339598089},{"rank":50,"name":"Vincent'Dra","vocation":"Master Sorcerer","world":"Antica","level":1342,"value":40102076612}],"highscore_page":{"current_page":1,"total_pages":20,"total_records":1000}},"information":{"api":{"version":4,"release":"4.8.0","commit":"e3963de0848d8ce9d368a9cd54b306ccfddd0d15"},"timestamp":"2026-05-30T15:00:06Z","tibia_urls":["https://www.tibia.com/community/?subtopic=highscores\u0026world=Antica\u0026category=6\u0026profession=0\u0026currentpage=1"],"status":{"http_code":200}}}